%YAML 1.1
%TAG !u! tag:unity3d.com,2011:
--- !u!1001 &7918290786066200620
PrefabInstance:
  m_ObjectHideFlags: 0
  serializedVersion: 2
  m_Modification:
    m_TransformParent: {fileID: 0}
    m_Modifications:
    - target: {fileID: 3070968330640054562, guid: fdd3bc1b81ad7a74ab861e6d812ca903, type: 3}
      propertyPath: id
      value: silver
      objectReference: {fileID: 0}
    - target: {fileID: 6836087895148660676, guid: fdd3bc1b81ad7a74ab861e6d812ca903, type: 3}
      propertyPath: m_Name
      value: Score Item - Silver
      objectReference: {fileID: 0}
    - target: {fileID: 7644168756721243115, guid: fdd3bc1b81ad7a74ab861e6d812ca903, type: 3}
      propertyPath: m_Pivot.x
      value: 0.5
      objectReference: {fileID: 0}
    - target: {fileID: 7644168756721243115, guid: fdd3bc1b81ad7a74ab861e6d812ca903, type: 3}
      propertyPath: m_Pivot.y
      value: 0.5
      objectReference: {fileID: 0}
    - target: {fileID: 7644168756721243115, guid: fdd3bc1b81ad7a74ab861e6d812ca903, type: 3}
      propertyPath: m_RootOrder
      value: 0
      objectReference: {fileID: 0}
    - target: {fileID: 7644168756721243115, guid: fdd3bc1b81ad7a74ab861e6d812ca903, type: 3}
      propertyPath: m_AnchorMax.x
      value: 0
      objectReference: {fileID: 0}
    - target: {fileID: 7644168756721243115, guid: fdd3bc1b81ad7a74ab861e6d812ca903, type: 3}
      propertyPath: m_AnchorMax.y
      value: 0
      objectReference: {fileID: 0}
    - target: {fileID: 7644168756721243115, guid: fdd3bc1b81ad7a74ab861e6d812ca903, type: 3}
      propertyPath: m_AnchorMin.x
      value: 0
      objectReference: {fileID: 0}
    - target: {fileID: 7644168756721243115, guid: fdd3bc1b81ad7a74ab861e6d812ca903, type: 3}
      propertyPath: m_AnchorMin.y
      value: 0
      objectReference: {fileID: 0}
    - target: {fileID: 7644168756721243115, guid: fdd3bc1b81ad7a74ab861e6d812ca903, type: 3}
      propertyPath: m_SizeDelta.x
      value: 0
      objectReference: {fileID: 0}
    - target: {fileID: 7644168756721243115, guid: fdd3bc1b81ad7a74ab861e6d812ca903, type: 3}
      propertyPath: m_SizeDelta.y
      value: 100
      objectReference: {fileID: 0}
    - target: {fileID: 7644168756721243115, guid: fdd3bc1b81ad7a74ab861e6d812ca903, type: 3}
      propertyPath: m_LocalPosition.x
      value: 0
      objectReference: {fileID: 0}
    - target: {fileID: 7644168756721243115, guid: fdd3bc1b81ad7a74ab861e6d812ca903, type: 3}
      propertyPath: m_LocalPosition.y
      value: 0
      objectReference: {fileID: 0}
    - target: {fileID: 7644168756721243115, guid: fdd3bc1b81ad7a74ab861e6d812ca903, type: 3}
      propertyPath: m_LocalPosition.z
      value: 0
      objectReference: {fileID: 0}
    - target: {fileID: 7644168756721243115, guid: fdd3bc1b81ad7a74ab861e6d812ca903, type: 3}
      propertyPath: m_LocalRotation.w
      value: 1
      objectReference: {fileID: 0}
    - target: {fileID: 7644168756721243115, guid: fdd3bc1b81ad7a74ab861e6d812ca903, type: 3}
      propertyPath: m_LocalRotation.x
      value: 0
      objectReference: {fileID: 0}
    - target: {fileID: 7644168756721243115, guid: fdd3bc1b81ad7a74ab861e6d812ca903, type: 3}
      propertyPath: m_LocalRotation.y
      value: 0
      objectReference: {fileID: 0}
    - target: {fileID: 7644168756721243115, guid: fdd3bc1b81ad7a74ab861e6d812ca903, type: 3}
      propertyPath: m_LocalRotation.z
      value: 0
      objectReference: {fileID: 0}
    - target: {fileID: 7644168756721243115, guid: fdd3bc1b81ad7a74ab861e6d812ca903, type: 3}
      propertyPath: m_AnchoredPosition.x
      value: 0
      objectReference: {fileID: 0}
    - target: {fileID: 7644168756721243115, guid: fdd3bc1b81ad7a74ab861e6d812ca903, type: 3}
      propertyPath: m_AnchoredPosition.y
      value: 0
      objectReference: {fileID: 0}
    - target: {fileID: 7644168756721243115, guid: fdd3bc1b81ad7a74ab861e6d812ca903, type: 3}
      propertyPath: m_LocalEulerAnglesHint.x
      value: 0
      objectReference: {fileID: 0}
    - target: {fileID: 7644168756721243115, guid: fdd3bc1b81ad7a74ab861e6d812ca903, type: 3}
      propertyPath: m_LocalEulerAnglesHint.y
      value: 0
      objectReference: {fileID: 0}
    - target: {fileID: 7644168756721243115, guid: fdd3bc1b81ad7a74ab861e6d812ca903, type: 3}
      propertyPath: m_LocalEulerAnglesHint.z
      value: 0
      objectReference: {fileID: 0}
    - target: {fileID: 8056326171716714828, guid: fdd3bc1b81ad7a74ab861e6d812ca903, type: 3}
      propertyPath: m_Sprite
      value: 
      objectReference: {fileID: 21300000, guid: fe8c509eae5e53d4b83181aada58dd00, type: 3}
    m_RemovedComponents: []
  m_SourcePrefab: {fileID: 100100000, guid: fdd3bc1b81ad7a74ab861e6d812ca903, type: 3}
