%YAML 1.1
%TAG !u! tag:unity3d.com,2011:
--- !u!1001 &3865484157523236331
PrefabInstance:
  m_ObjectHideFlags: 0
  serializedVersion: 2
  m_Modification:
    m_TransformParent: {fileID: 0}
    m_Modifications:
    - target: {fileID: 2572166069348280038, guid: 7398319fd09786e4d9d348ad529db94a, type: 3}
      propertyPath: id
      value: tnt
      objectReference: {fileID: 0}
    - target: {fileID: 2572166069348280039, guid: 7398319fd09786e4d9d348ad529db94a, type: 3}
      propertyPath: m_Group
      value: 
      objectReference: {fileID: 0}
    - target: {fileID: 2572166069348280041, guid: 7398319fd09786e4d9d348ad529db94a, type: 3}
      propertyPath: m_Name
      value: TNT
      objectReference: {fileID: 0}
    - target: {fileID: 2572166069348280042, guid: 7398319fd09786e4d9d348ad529db94a, type: 3}
      propertyPath: m_Pivot.x
      value: 0.5
      objectReference: {fileID: 0}
    - target: {fileID: 2572166069348280042, guid: 7398319fd09786e4d9d348ad529db94a, type: 3}
      propertyPath: m_Pivot.y
      value: 0.5
      objectReference: {fileID: 0}
    - target: {fileID: 2572166069348280042, guid: 7398319fd09786e4d9d348ad529db94a, type: 3}
      propertyPath: m_RootOrder
      value: 0
      objectReference: {fileID: 0}
    - target: {fileID: 2572166069348280042, guid: 7398319fd09786e4d9d348ad529db94a, type: 3}
      propertyPath: m_AnchorMax.x
      value: 0
      objectReference: {fileID: 0}
    - target: {fileID: 2572166069348280042, guid: 7398319fd09786e4d9d348ad529db94a, type: 3}
      propertyPath: m_AnchorMax.y
      value: 0
      objectReference: {fileID: 0}
    - target: {fileID: 2572166069348280042, guid: 7398319fd09786e4d9d348ad529db94a, type: 3}
      propertyPath: m_AnchorMin.x
      value: 0
      objectReference: {fileID: 0}
    - target: {fileID: 2572166069348280042, guid: 7398319fd09786e4d9d348ad529db94a, type: 3}
      propertyPath: m_AnchorMin.y
      value: 0
      objectReference: {fileID: 0}
    - target: {fileID: 2572166069348280042, guid: 7398319fd09786e4d9d348ad529db94a, type: 3}
      propertyPath: m_SizeDelta.x
      value: 200
      objectReference: {fileID: 0}
    - target: {fileID: 2572166069348280042, guid: 7398319fd09786e4d9d348ad529db94a, type: 3}
      propertyPath: m_SizeDelta.y
      value: 200
      objectReference: {fileID: 0}
    - target: {fileID: 2572166069348280042, guid: 7398319fd09786e4d9d348ad529db94a, type: 3}
      propertyPath: m_LocalPosition.x
      value: 0
      objectReference: {fileID: 0}
    - target: {fileID: 2572166069348280042, guid: 7398319fd09786e4d9d348ad529db94a, type: 3}
      propertyPath: m_LocalPosition.y
      value: 0
      objectReference: {fileID: 0}
    - target: {fileID: 2572166069348280042, guid: 7398319fd09786e4d9d348ad529db94a, type: 3}
      propertyPath: m_LocalPosition.z
      value: 0
      objectReference: {fileID: 0}
    - target: {fileID: 2572166069348280042, guid: 7398319fd09786e4d9d348ad529db94a, type: 3}
      propertyPath: m_LocalRotation.w
      value: 1
      objectReference: {fileID: 0}
    - target: {fileID: 2572166069348280042, guid: 7398319fd09786e4d9d348ad529db94a, type: 3}
      propertyPath: m_LocalRotation.x
      value: -0
      objectReference: {fileID: 0}
    - target: {fileID: 2572166069348280042, guid: 7398319fd09786e4d9d348ad529db94a, type: 3}
      propertyPath: m_LocalRotation.y
      value: -0
      objectReference: {fileID: 0}
    - target: {fileID: 2572166069348280042, guid: 7398319fd09786e4d9d348ad529db94a, type: 3}
      propertyPath: m_LocalRotation.z
      value: -0
      objectReference: {fileID: 0}
    - target: {fileID: 2572166069348280042, guid: 7398319fd09786e4d9d348ad529db94a, type: 3}
      propertyPath: m_AnchoredPosition.x
      value: 0
      objectReference: {fileID: 0}
    - target: {fileID: 2572166069348280042, guid: 7398319fd09786e4d9d348ad529db94a, type: 3}
      propertyPath: m_AnchoredPosition.y
      value: 0
      objectReference: {fileID: 0}
    - target: {fileID: 2572166069348280042, guid: 7398319fd09786e4d9d348ad529db94a, type: 3}
      propertyPath: m_LocalEulerAnglesHint.x
      value: 0
      objectReference: {fileID: 0}
    - target: {fileID: 2572166069348280042, guid: 7398319fd09786e4d9d348ad529db94a, type: 3}
      propertyPath: m_LocalEulerAnglesHint.y
      value: 0
      objectReference: {fileID: 0}
    - target: {fileID: 2572166069348280042, guid: 7398319fd09786e4d9d348ad529db94a, type: 3}
      propertyPath: m_LocalEulerAnglesHint.z
      value: 0
      objectReference: {fileID: 0}
    - target: {fileID: 2572166071388506226, guid: 7398319fd09786e4d9d348ad529db94a, type: 3}
      propertyPath: m_text
      value: TNT
      objectReference: {fileID: 0}
    m_RemovedComponents: []
  m_SourcePrefab: {fileID: 100100000, guid: 7398319fd09786e4d9d348ad529db94a, type: 3}
